{
"ferols" : [
"http://cmd64-cctrl-01.cern.ch:2002/urn:xdaq-application:lid=109",
"http://cmd64-cctrl-01.cern.ch:2003/urn:xdaq-application:lid=109",
"http://cmd64-cctrl-01.cern.ch:2004/urn:xdaq-application:lid=109",
"http://cmd64-cctrl-01.cern.ch:2005/urn:xdaq-application:lid=109"
]
} 