{
"items" : [
"% %",
"%Configuration%",
"slotNumber",
"lockStatus",
"MolMode",
"stateName",
"failedReason",
"SourceMACAddress",
"DestinationMACAddress",
"SourceIP",
"enableStream0",
"enableStream1",
"TCP_DESTINATION_PORT_FED0",
"TCP_DESTINATION_PORT_FED1",
"TCP_SOURCE_PORT_FED0",
"TCP_SOURCE_PORT_FED1",
"DestinationIP",
"Event_Length_bytes_FED0",
"Event_Length_bytes_FED1",
"%Setting Up%",
"TCP_ARP_REPLY_OK",
"SERDES_ENABLE_LINK",
"TCP_CONNECTION_ESTABLISHED_FED0",
"TCP_CONNECTION_ESTABLISHED_FED1",
"%Monitoring%",
"Throughput_FED0",
"Throughput_FED1",
"EventGenRate",
"PacketRate",
"%Expert Stuff%",
"TCP_STAT_SNDPACK_FED0",
"TCP_STAT_SNDPACK_FED1",
"TCP_STAT_SNDREXMITPACK_FED0",
"TCP_STAT_SNDREXMITPACK_FED1",
"TCP_STAT_RCVDUPACK_FED0",
"TCP_STAT_RCVDUPACK_FED1",
"PACKETS_RECEIVED_LO",
"PACKETS_SENT_LO",
"TCP_STAT_SNDBYTE_FED0_LO",
"TCP_STAT_SNDBYTE_FED1_LO",
"PACK_REXMIT_FED0",
"PACK_REXMIT_FED1",
"BIFI_FED0",
"BIFI_FED1",
"BIFI_MAX_FED0",
"BIFI_MAX_FED1",
"RTT_FED0",
"RTT_FED1",
"RTT_MAX_FED0",
"RTT_MAX_FED1",
"RTT_MIN_FED0",
"RTT_MIN_FED1",
"AVG_RTT_FED0",
"AVG_RTT_FED1",
"ACK_DELAY_MAX_FED0",
"ACK_DELAY_MAX_FED1"
]
}
