<SOAP-ENV:Header>
		<xr:relay
SOAP-ENV:actor="http://xdaq.web.cern.ch/xdaq/xsd/2004/XRelay-10"
xmlns:xr="http://xdaq.web.cern.ch/xdaq/xsd/2004/XRelay-10">
		<xr:to url="http://lxcmd101:40000" urn="urn:xdaq-application:lid=4">
			<xr:to url="http://lxcmd102:40000" urn="urn:xdaq-application:lid=4">
				<xr:to notify="true" url="http://lxcmd103:40000" urn="urn:xdaq-application:lid=4">
					<xr:to  url="http://lxcmd104:40000" urn="urn:xdaq-application:lid=4">
					</xr:to>
				</xr:to>
			</xr:to>
		</xr:to>
		</xr:relay>
	</SOAP-ENV:Header>
