*****************************************************************************************************************
*  key                 AM  width  address  mask      read write   description
*****************************************************************************************************************
*
VMELowLimit             29   2    0000     0fff        1    1     Low limit of memory region
VMEHighLimit            29   2    0002     0fff        1    1     High limit of memory region
A24D32AM                29   2    0004     003f        1    1     AM for A24/D32 access
A24D32BlockAM           29   2    0004     3f00        1    1     AM for A24/D32 block transfer
A24D64BlockAM           29   2    0006     003f        1    1     AM for A24/D64 block transfer
A32D32AM                29   2    0008     003f        1    1     AM for A32/D32 access
A32D32BlockAM           29   2    0008     3f00        1    1     AM for A32/D32 block transfer
A32D64BlockAM           29   2    000a     003f        1    1     AM for A32/D64 block transfer
ParityEnable            29   2    0016     0002        1    1     Parity Enable Flag
Parity                  29   2    0016     0001        1    1     Parity Flag (can be reset)
